

{
    "name": "FAQs",
    "settings": [
        {
            "type": "text",
            "id": "title",
            "label": "Title"
        }
    ],
    "blocks": [
        {
            "type": "list",
            "name": "Section separator",
            "settings": [
                {
                    "type": "text",
                    "id": "heading",
                    "label": "Heading"
                }
            ]
        },
        {
            "type": "question",
            "name": "Question",
            "settings": [
                {
                    "type": "text",
                    "id": "faqQuestion",
                    "label": "Question"
                },
                {
                    "type": "richtext",
                    "id": "faqanswer",
                    "label": "Answer"
                }
            ]
        }
    ]
}


