

{
    "name": "Rating Slider",
    "settings": [
        {
            "type": "text",
            "id": "buttonText",
            "label": "Button Text"
        },
        {
            "type": "url",
            "id": "buttonLink",
            "label": "Button Link"
        }
    ],
    "blocks": [
        {
            "type": "ratings",
            "name": "Ratings",
            "limit": 4,
            "settings": [
                {
                    "type": "range",
                    "id": "ratings",
                    "min": 0,
                    "max": 5,
                    "label": "Ratings",
                    "default": 0
                },
                {
                    "type": "text",
                    "id": "title",
                    "label": "Title"
                }
            ]
        }
    ]
}


