

{
    "name": "4 Column Testimonial",
    "settings": [
        {
            "type": "text",
            "id": "title",
            "label": "Title"
        },
        {
            "type": "text",
            "id": "titleBlue",
            "label": "Title (Blue)"
        },
        {
            "type": "text",
            "id": "buttonText",
            "label": "Button Text"
        },
        {
            "type": "url",
            "id": "buttonLink",
            "label": "Button Link"
        }
    ],
    "blocks": [
        {
            "type": "testi",
            "name": "Testimonial",
            "settings": [
                {
                    "type": "range",
                    "id": "ratings",
                    "min": 0,
                    "max": 5,
                    "label": "Ratings",
                    "default": 0
                },
                {
                    "type": "text",
                    "id": "name",
                    "label": "Name"
                },
                {
                    "type": "text",
                    "id": "title",
                    "label": "Title"
                },
                {
                    "type": "richtext",
                    "id": "description",
                    "label": "Description"
                },
                {
                    "type": "image_picker",
                    "id": "image",
                    "label": "User Image"
                }
            ]
        }
    ]
}


