

{
    "name": "Half Img Half Content",
    "settings": [
        {
            "type": "image_picker",
            "id": "backgroundImage",
            "label": "Background Image (desktop)"
        },
        {
            "type": "image_picker",
            "id": "backgroundImageMobile",
            "label": "Background Image (mobile)"
        },
        {
            "type": "text",
            "id": "title",
            "label": "Title"
        },
        {
            "type": "text",
            "id": "buttonText",
            "label": "Button Text"
        },
        {
            "type": "url",
            "id": "buttonLink",
            "label": "Button Link"
        },
        {
            "type": "text",
            "id": "buttonText2",
            "label": "Button Text (2)"
        },
        {
            "type": "url",
            "id": "buttonLink2",
            "label": "Button Link (2)"
        },
        {
            "type": "text",
            "id": "lowerTitle",
            "label": "Title (lower)"
        },
        {
            "type": "text",
            "id": "linkText",
            "label": "Link Text"
        },
        {
            "type": "url",
            "id": "link",
            "label": "Link"
        }
    ]
}


