

{
    "name": "Half Img Half Content",
    "blocks": [
        {
            "type": "sections",
            "name": "sections",
            "settings": [
                {
                    "type": "select",
                    "id": "position",
                    "label": "Section Class Name",
                    "info": "Position of Image (left or right)",
                    "options": [
                        {
                            "value": "left",
                            "label": "left"
                        },
                        {
                            "value": "right",
                            "label": "right"
                        }
                    ]
                },
                {
                    "type": "select",
                    "id": "iamgeStyle",
                    "label": "Image Style",
                    "info": "Use contain for image with text",
                    "options": [
                        {
                            "value": "cover",
                            "label": "cover"
                        },
                        {
                            "value": "contain",
                            "label": "contain"
                        }
                    ],
                    "default": "cover"
                },
                {
                    "type": "text",
                    "id": "title",
                    "label": "Title"
                },
                {
                    "type": "richtext",
                    "id": "description",
                    "label": "Description"
                },
                {
                    "type": "image_picker",
                    "id": "sectionImage",
                    "label": "Image"
                }
            ]
        }
    ]
}


