// Jest Snapshot v1, https://goo.gl/fbAQLP

exports[`PaymentTermsInfo renders correctly 1`] = `
<div
  className="sc-bczRLJ jMBRzN payment-terms"
  dangerouslySetInnerHTML={
    Object {
      "__html": "<shopify-payment-terms variant-id=\\"31304288239669\\">
						Pay in 4 interest-free installments of $31.25 with Learn more
					</shopify-payment-terms>",
    }
  }
/>
`;
