

{
    "name": "Half Video Half Content",
    "settings": [
        {
            "type": "image_picker",
            "id": "image",
            "label": "Image"
        },
        {
            "type": "text",
            "id": "title",
            "label": "Title"
        },
        {
            "type": "text",
            "id": "titleBlue",
            "label": "Title (blue)"
        },
        {
            "type": "html",
            "id": "wistiaLink",
            "label": "Video Script (Wistia)"
        },
        {
            "type": "html",
            "id": "description",
            "label": "Description"
        },
        {
            "type": "text",
            "id": "buttonText",
            "label": "Button Text"
        },
        {
            "type": "url",
            "id": "buttonLink",
            "label": "Button Link"
        }
    ]
}


