

{
    "name": {
        "cs": "Záhlaví",
        "da": "Overskrift",
        "de": "Titel",
        "en": "Header",
        "es": "Encabezado",
        "fi": "Ylätunniste",
        "fr": "En-tête",
        "it": "Header",
        "ja": "ヘッダー",
        "ko": "헤더",
        "nb": "Header",
        "nl": "Koptekst",
        "pl": "Nagłówek",
        "pt-BR": "Cabeçalho",
        "pt-PT": "Cabeçalho",
        "sv": "Rubrik",
        "th": "ส่วนหัว",
        "tr": "Üstbilgi",
        "vi": "Đầu trang",
        "zh-CN": "标头",
        "zh-TW": "標頭"
    },
    "settings": [
        {
            "type": "image_picker",
            "id": "logo",
            "label": {
                "cs": "Obrázek loga",
                "da": "Logobillede",
                "de": "Logo-Foto",
                "en": "Logo image",
                "es": "Logo",
                "fi": "Logokuva",
                "fr": "Image du logo",
                "it": "Immagine del logo",
                "ja": "ロゴ画像",
                "ko": "로고 이미지",
                "nb": "Logobilde",
                "nl": "Afbeelding van logo",
                "pl": "Obraz logo",
                "pt-BR": "Imagem do logotipo",
                "pt-PT": "Imagem do logótipo",
                "sv": "Logobild",
                "th": "รูปภาพโลโก้",
                "tr": "Logo görseli",
                "vi": "Hình ảnh logo",
                "zh-CN": "logo 图片",
                "zh-TW": "標誌圖片"
            }
        },
        {
            "type": "range",
            "id": "logo_max_width",
            "label": {
                "cs": "Šířka vlastního loga",
                "da": "Tilpasset logobredde",
                "de": "Logobreite",
                "en": "Custom logo width",
                "es": "Ancho del logo personalizado",
                "fi": "Mukautetun logon leveys",
                "fr": "Largeur personnalisée du logo",
                "it": "Larghezza logo personalizzato",
                "ja": "ロゴの幅をカスタマイズする",
                "ko": "사용자 지정 로고 폭",
                "nb": "Tilpasset logobredde",
                "nl": "Aangepaste logo-breedte",
                "pl": "Niestandardowa szerokość logo",
                "pt-BR": "Largura do logotipo personalizado",
                "pt-PT": "Largura de logótipo personalizada",
                "sv": "Anpassad logotypsbredd",
                "th": "ความกว้างของโลโก้แบบกำหนดเอง",
                "tr": "Özel logo genişliği",
                "vi": "Chiều rộng logo tùy chỉnh",
                "zh-CN": "自定义 logo 宽度",
                "zh-TW": "自訂商標寬度"
            },
            "min": 50,
            "max": 500,
            "step": 10,
            "unit": "px",
            "default": 100
        },
        {
            "type": "text",
            "id": "header",
            "label": {
                "cs": "Nadpis",
                "da": "Overskrift",
                "de": "Titel",
                "en": "Heading",
                "es": "Título",
                "fi": "Otsake",
                "fr": "En-tête",
                "it": "Heading",
                "ja": "見出し",
                "ko": "제목",
                "nb": "Overskrift",
                "nl": "Kop",
                "pl": "Nagłówek",
                "pt-BR": "Título",
                "pt-PT": "Título",
                "sv": "Rubrik",
                "th": "ส่วนหัว",
                "tr": "Başlık",
                "vi": "Tiêu đề",
                "zh-CN": "标题",
                "zh-TW": "標題"
            },
            "default": {
                "cs": "Připravujeme",
                "da": "Kommer snart",
                "de": "Demnächst",
                "en": "Coming Soon",
                "es": "Próximamente",
                "fi": "Tulossa pian",
                "fr": "En construction",
                "it": "Presto disponibile",
                "ja": "まもなく公開",
                "ko": "곧 출시 예정",
                "nb": "Kommer snart",
                "nl": "Binnenkort",
                "pl": "Już wkrótce",
                "pt-BR": "Em breve",
                "pt-PT": "Em breve",
                "sv": "Kommer snart",
                "th": "เร็วๆ นี้",
                "tr": "Çok Yakında",
                "vi": "Sắp ra mắt",
                "zh-CN": "即将推出",
                "zh-TW": "即將推出"
            }
        }
    ]
}


