

{
    "name": "Page Banner",
    "settings": [
        {
            "type": "image_picker",
            "id": "backgroundImage",
            "label": "Background Image (Desktop)"
        },
        {
            "type": "image_picker",
            "id": "backgroundImageMobile",
            "label": "Background Image (Mobile)"
        },
        {
            "type": "text",
            "id": "title",
            "label": "Title"
        },
        {
            "type": "html",
            "id": "description",
            "label": "Description"
        }
    ]
}


